ml_final_project
…
Note that from last plot, we saw BR, US,HU, and CA have a
high mean count of kisses. However, there arent many users from any of
these countries in this dating app. This leads to a question: Does a
popular country imply less like?

The following chunk is to see the correlation between the number of
users in a country and the mean number of kisses.

country_count[,2]

## # A tibble: 28 x 1
##        n
##    <int>
##  1     1
##  2    18
##  3     1
##  4     3
##  5     5
##  6     2
##  7     1
##  8     1
##  9  1324
## 10     1
## # ... with 18 more rows
…
